<?xml version="1.0" encoding="UTF-8" standalone="no"?>
<!-- Created with Inkscape (http://www.inkscape.org/) -->

<svg
   width="32"
   height="32"
   viewBox="0 0 8.4666665 8.4666669"
   version="1.1"
   id="svg5"
   inkscape:version="1.1.2 (0a00cf5339, 2022-02-04)"
   sodipodi:docname="recovery.svg"
   inkscape:export-filename="/home/tgy-tutorials/Scrivania/recovery.png"
   inkscape:export-xdpi="96"
   inkscape:export-ydpi="96"
   xmlns:inkscape="http://www.inkscape.org/namespaces/inkscape"
   xmlns:sodipodi="http://sodipodi.sourceforge.net/DTD/sodipodi-0.dtd"
   xmlns="http://www.w3.org/2000/svg"
   xmlns:svg="http://www.w3.org/2000/svg">
  <sodipodi:namedview
     id="namedview7"
     pagecolor="#8c8c8c"
     bordercolor="#666666"
     borderopacity="1.0"
     inkscape:pageshadow="2"
     inkscape:pageopacity="0"
     inkscape:pagecheckerboard="0"
     inkscape:document-units="px"
     showgrid="false"
     units="px"
     inkscape:showpageshadow="false"
     inkscape:zoom="7.8286645"
     inkscape:cx="15.966963"
     inkscape:cy="16.030831"
     inkscape:window-width="1920"
     inkscape:window-height="996"
     inkscape:window-x="0"
     inkscape:window-y="28"
     inkscape:window-maximized="1"
     inkscape:current-layer="layer1" />
  <defs
     id="defs2" />
  <g
     inkscape:label="Livello 1"
     inkscape:groupmode="layer"
     id="layer1">
    <path
       d="M 6.3150671,3.0232973 5.1060655,4.2414908 H 6.0128166 A 1.8135022,1.8272902 0 0 1 4.1993144,6.068781 c -0.3022503,0 -0.5954332,-0.076137 -0.846301,-0.2131838 L 2.9117278,6.3002379 c 0.3717679,0.2375477 0.8130536,0.3776399 1.2875866,0.3776399 a 2.418003,2.436387 0 0 0 2.418003,-2.436387 h 0.9067512 m -5.1382564,0 A 1.8135022,1.8272902 0 0 1 4.1993144,2.4142006 c 0.3022503,0 0.5954332,0.076137 0.846301,0.2131838 L 5.486901,2.1827438 C 5.1151331,1.9451961 4.6738474,1.8051038 4.1993144,1.8051038 a 2.418003,2.436387 0 0 0 -2.418003,2.436387 H 0.87456024 L 2.0835618,5.4596843 3.2925633,4.2414908"
       id="path863"
       style="fill:#e6e6e6;fill-opacity:1;stroke-width:0.303397" />
  </g>
  <style
     type="text/css"
     id="style884">
	.st0{fill:#FFFFFF;}
	.st1{fill:#69B53F;}
	.st2{fill:#F8F8F8;}
</style>
</svg>
