<?xml version="1.0" encoding="UTF-8" standalone="no"?>
<!-- Created with Inkscape (http://www.inkscape.org/) -->

<svg
   width="32"
   height="32"
   viewBox="0 0 8.4666665 8.4666669"
   version="1.1"
   id="svg5"
   inkscape:version="1.1.2 (0a00cf5339, 2022-02-04)"
   sodipodi:docname="restart.svg"
   inkscape:export-filename="/home/tgy-tutorials/Scrivania/restart.png"
   inkscape:export-xdpi="96"
   inkscape:export-ydpi="96"
   xmlns:inkscape="http://www.inkscape.org/namespaces/inkscape"
   xmlns:sodipodi="http://sodipodi.sourceforge.net/DTD/sodipodi-0.dtd"
   xmlns="http://www.w3.org/2000/svg"
   xmlns:svg="http://www.w3.org/2000/svg">
  <sodipodi:namedview
     id="namedview7"
     pagecolor="#8c8c8c"
     bordercolor="#666666"
     borderopacity="1.0"
     inkscape:pageshadow="2"
     inkscape:pageopacity="0"
     inkscape:pagecheckerboard="0"
     inkscape:document-units="px"
     showgrid="false"
     units="px"
     inkscape:showpageshadow="false"
     inkscape:zoom="7.8286645"
     inkscape:cx="15.966963"
     inkscape:cy="16.030831"
     inkscape:window-width="1920"
     inkscape:window-height="996"
     inkscape:window-x="0"
     inkscape:window-y="28"
     inkscape:window-maximized="1"
     inkscape:current-layer="layer1"
     inkscape:snap-global="false" />
  <defs
     id="defs2" />
  <g
     inkscape:label="Livello 1"
     inkscape:groupmode="layer"
     id="layer1">
    <path
       d="m 4.2473271,2.0226123 c 0.7388516,0 1.4425188,0.2814673 1.9702699,0.8092184 1.0906865,1.0906857 1.0906865,2.8850394 0,3.9757251 C 5.5842957,7.4760405 4.704711,7.7223244 3.8603092,7.6167742 L 4.0362267,6.913106 c 0.598117,0.070367 1.2314183,-0.1407336 1.6888035,-0.598118 0.8092175,-0.8092183 0.8092175,-2.1461877 0,-2.9905896 C 5.3380123,2.9373809 4.7750782,2.7262805 4.2473271,2.7262805 V 4.3447172 L 2.4881564,2.5855469 4.2473271,0.8263765 V 2.0226123 M 2.241873,6.8075558 C 1.327104,5.8927872 1.1863708,4.485451 1.8196721,3.3947651 L 2.3474232,3.9225164 C 1.9604053,4.6965514 2.1011385,5.6816867 2.7696241,6.314988 2.9455402,6.4909051 3.1566407,6.6316387 3.4029254,6.7371889 L 3.191825,7.4408571 C 2.83999,7.3001235 2.5233393,7.0890231 2.241873,6.8075558 Z"
       id="path2736"
       style="fill:#e6e6e6;fill-opacity:1;stroke-width:0.351834" />
  </g>
  <style
     type="text/css"
     id="style884">
	.st0{fill:#FFFFFF;}
	.st1{fill:#69B53F;}
	.st2{fill:#F8F8F8;}
</style>
</svg>
