<?xml version="1.0" encoding="UTF-8" standalone="no"?>
<!-- Created with Inkscape (http://www.inkscape.org/) -->

<svg
   width="32"
   height="32"
   viewBox="0 0 8.4666665 8.4666669"
   version="1.1"
   id="svg5"
   inkscape:version="1.1.2 (0a00cf5339, 2022-02-04)"
   sodipodi:docname="steamos.svg"
   inkscape:export-filename="/home/tgy-tutorials/Scrivania/steamos.png"
   inkscape:export-xdpi="96"
   inkscape:export-ydpi="96"
   xmlns:inkscape="http://www.inkscape.org/namespaces/inkscape"
   xmlns:sodipodi="http://sodipodi.sourceforge.net/DTD/sodipodi-0.dtd"
   xmlns:xlink="http://www.w3.org/1999/xlink"
   xmlns="http://www.w3.org/2000/svg"
   xmlns:svg="http://www.w3.org/2000/svg">
  <sodipodi:namedview
     id="namedview7"
     pagecolor="#8c8c8c"
     bordercolor="#666666"
     borderopacity="1.0"
     inkscape:pageshadow="2"
     inkscape:pageopacity="0"
     inkscape:pagecheckerboard="0"
     inkscape:document-units="px"
     showgrid="false"
     units="px"
     inkscape:showpageshadow="false"
     inkscape:zoom="15.657329"
     inkscape:cx="7.7918782"
     inkscape:cy="8.8456977"
     inkscape:window-width="1920"
     inkscape:window-height="996"
     inkscape:window-x="0"
     inkscape:window-y="28"
     inkscape:window-maximized="1"
     inkscape:current-layer="layer1" />
  <defs
     id="defs2">
    <linearGradient
       id="linearGradient6147-1-1-4-4-7-0-6-1">
      <stop
         id="stop6149-6-3-9-3-3-6-7-8"
         offset="0"
         style="stop-color:#5f8dd3;stop-opacity:1;" />
      <stop
         id="stop6151-5-0-9-5-1-1-4-6"
         offset="1"
         style="stop-color:#162d50;stop-opacity:1;" />
    </linearGradient>
    <radialGradient
       inkscape:collect="always"
       xlink:href="#linearGradient6147-1-1-4-4-7-0-6-1"
       id="radialGradient5132"
       gradientUnits="userSpaceOnUse"
       gradientTransform="matrix(0.68941368,0.68941368,-0.68941893,0.68941893,199.77384,-532.32858)"
       spreadMethod="pad"
       cx="1027.8583"
       cy="477.45059"
       fx="1027.8583"
       fy="477.45059"
       r="57.480274" />
  </defs>
  <g
     inkscape:label="Livello 1"
     inkscape:groupmode="layer"
     id="layer1">
    <path
       d="M 4.2333333,0.90857917 A 3.3247541,3.3247541 0 0 1 7.5580876,4.2333334 3.3247541,3.3247541 0 0 1 4.2333333,7.5580876 c -1.5293869,0 -2.8094173,-1.0240243 -3.205063,-2.4170964 l 1.2733808,0.5253112 c 0.086444,0.4288933 0.4687903,0.7547193 0.9242817,0.7547193 0.5186617,0 0.9409054,-0.4222439 0.9409054,-0.9409055 V 5.4368944 L 5.2972547,4.6289792 h 0.026598 c 0.6915489,0 1.2534323,-0.5618836 1.2534323,-1.2534324 0,-0.6915488 -0.5618834,-1.2534323 -1.2534323,-1.2534323 -0.6915488,0 -1.2567571,0.5618835 -1.2567571,1.2534323 v 0.016624 l -0.7879668,1.1503649 -0.053196,-0.00333 c -0.1961605,0 -0.379022,0.059846 -0.5286359,0.1629129 L 0.90857917,3.967353 C 1.0515436,2.2551047 2.4811878,0.90857917 4.2333333,0.90857917 M 2.9965248,5.9522313 C 3.2625052,6.0619476 3.5683825,5.9389327 3.6780993,5.672952 3.7878162,5.4069716 3.6614757,5.1044189 3.4021448,4.994702 L 2.9765763,4.8184901 c 0.1629129,-0.059846 0.3457744,-0.063171 0.5186616,0.00998 0.176212,0.06982 0.3125269,0.2061347 0.3823467,0.3823467 0.073144,0.1728872 0.073144,0.365723 0,0.5386102 C 3.7346202,6.1084973 3.3123765,6.2813846 2.953303,6.1317707 2.7870652,6.0619507 2.6607245,5.9356101 2.5909047,5.7859962 l 0.4056201,0.1662377 m 3.165166,-2.5766871 c 0,0.4621408 -0.3756972,0.8378381 -0.8378381,0.8378381 -0.4588161,0 -0.8345133,-0.3756973 -0.8345133,-0.8378381 A 0.83118855,0.83118853 0 0 1 5.3238527,2.5410334 c 0.4621409,0 0.8378381,0.3756973 0.8378381,0.8345134 m -1.4628918,0 c 0,0.3457745 0.2792793,0.6283785 0.6283785,0.6283785 0.3457745,0 0.6250538,-0.282604 0.6250538,-0.6283785 0,-0.3457745 -0.2792793,-0.6283785 -0.6250538,-0.6283785 -0.3490992,0 -0.6283785,0.282604 -0.6283785,0.6283785 z"
       id="path14577"
       style="fill:#e6e6e6;fill-opacity:1;stroke:none;stroke-width:0.332475;stroke-opacity:1" />
  </g>
  <style
     type="text/css"
     id="style884">
	.st0{fill:#FFFFFF;}
	.st1{fill:#69B53F;}
	.st2{fill:#F8F8F8;}
</style>
</svg>
