<?xml version="1.0" encoding="UTF-8" standalone="no"?>
<!-- Created with Inkscape (http://www.inkscape.org/) -->

<svg
   width="32"
   height="32"
   viewBox="0 0 8.4666665 8.4666669"
   version="1.1"
   id="svg5"
   inkscape:version="1.1.2 (0a00cf5339, 2022-02-04)"
   sodipodi:docname="xubuntu.svg"
   inkscape:export-filename="/home/tgy-tutorials/Scrivania/xubuntu.png"
   inkscape:export-xdpi="96"
   inkscape:export-ydpi="96"
   xmlns:inkscape="http://www.inkscape.org/namespaces/inkscape"
   xmlns:sodipodi="http://sodipodi.sourceforge.net/DTD/sodipodi-0.dtd"
   xmlns="http://www.w3.org/2000/svg"
   xmlns:svg="http://www.w3.org/2000/svg">
  <sodipodi:namedview
     id="namedview7"
     pagecolor="#8c8c8c"
     bordercolor="#666666"
     borderopacity="1.0"
     inkscape:pageshadow="2"
     inkscape:pageopacity="0"
     inkscape:pagecheckerboard="0"
     inkscape:document-units="px"
     showgrid="false"
     units="px"
     inkscape:showpageshadow="false"
     inkscape:zoom="7.8286645"
     inkscape:cx="3.1933927"
     inkscape:cy="1.8521678"
     inkscape:window-width="1920"
     inkscape:window-height="996"
     inkscape:window-x="0"
     inkscape:window-y="28"
     inkscape:window-maximized="1"
     inkscape:current-layer="layer1" />
  <defs
     id="defs2" />
  <g
     inkscape:label="Livello 1"
     inkscape:groupmode="layer"
     id="layer1">
    <path
       id="path2236"
       style="fill:#e6e6e6;fill-opacity:1;stroke-width:26.8171;stroke-linecap:round"
       d="M 16 3.4335938 A 12.566 12.566 0 0 0 3.4335938 16 A 12.566 12.566 0 0 0 16 28.566406 A 12.566 12.566 0 0 0 28.566406 16 A 12.566 12.566 0 0 0 16 3.4335938 z M 20.066406 7.6484375 C 20.07236 7.6478068 20.07705 7.6504663 20.082031 7.65625 C 20.490747 7.9541104 19.711424 13.723645 19.263672 13.388672 C 18.754396 13.141095 19.818316 7.6747157 20.066406 7.6484375 z M 23.904297 8.3828125 C 23.92324 8.38316 23.939705 8.3892902 23.953125 8.4003906 C 24.14495 8.5898069 21.348143 14.245128 20.900391 13.910156 C 20.179007 13.376007 23.317053 8.3720405 23.904297 8.3828125 z M 13.630859 8.7851562 C 13.981893 8.809798 14.273845 8.9639676 14.474609 9.2070312 C 15.341467 10.256536 15.160663 12.056767 15.236328 13.425781 C 16.587595 13.499305 17.700878 13.663332 19.140625 14.083984 C 20.237901 14.404579 21.757349 14.942073 22.646484 15.519531 C 23.532322 16.094852 24.195428 16.839748 24.333984 17.841797 C 24.41996 18.463589 23.949025 19.086523 23.300781 19.65625 C 22.653575 20.225052 21.805342 20.760382 20.892578 21.261719 C 19.980258 21.762815 19.031902 22.21756 18.275391 22.570312 C 16.624539 23.34009 14.88107 24.090621 12.740234 24.306641 C 6.9359916 24.892294 7.5677996 19.623748 7.7929688 17.882812 C 7.9683736 16.526655 8.6938934 14.571269 8.8144531 14.214844 C 8.65645 13.712991 8.5341274 13.290208 8.4375 12.753906 C 8.3553822 12.298242 8.3110846 11.773216 8.4160156 11.318359 C 8.5194167 10.870143 8.8213226 10.370584 9.3203125 10.162109 C 9.7158669 9.9968461 10.005316 10.061521 10.375 10.396484 C 10.679351 10.67225 10.934637 11.080396 11.181641 11.507812 C 11.538738 12.125733 11.684544 12.766852 11.990234 13.394531 C 12.049343 13.515847 12.355081 13.571385 12.533203 13.519531 C 12.574683 13.507463 12.619363 13.405157 12.595703 13.324219 C 12.203391 11.982713 11.923856 10.873496 12.119141 9.9042969 C 12.300419 9.0046091 13.066723 8.8078731 13.630859 8.7851562 z "
       transform="scale(0.26458333)" />
  </g>
  <style
     type="text/css"
     id="style884">
	.st0{fill:#FFFFFF;}
	.st1{fill:#69B53F;}
	.st2{fill:#F8F8F8;}
</style>
</svg>
