<?xml version="1.0" encoding="UTF-8" standalone="no"?>
<!-- Created with Inkscape (http://www.inkscape.org/) -->

<svg
   width="512"
   height="512"
   viewBox="0 0 135.46666 135.46667"
   version="1.1"
   id="svg8"
   inkscape:export-filename="/home/tgy-tutorials/Scrivania/checksum.png"
   inkscape:export-xdpi="96"
   inkscape:export-ydpi="96"
   inkscape:version="1.1.2 (0a00cf5339, 2022-02-04)"
   sodipodi:docname="checksum.svg"
   xmlns:inkscape="http://www.inkscape.org/namespaces/inkscape"
   xmlns:sodipodi="http://sodipodi.sourceforge.net/DTD/sodipodi-0.dtd"
   xmlns:xlink="http://www.w3.org/1999/xlink"
   xmlns="http://www.w3.org/2000/svg"
   xmlns:svg="http://www.w3.org/2000/svg"
   xmlns:rdf="http://www.w3.org/1999/02/22-rdf-syntax-ns#"
   xmlns:cc="http://creativecommons.org/ns#"
   xmlns:dc="http://purl.org/dc/elements/1.1/">
  <defs
     id="defs2">
    <linearGradient
       id="linearGradient3700">
      <stop
         offset="0"
         style="stop-color:#0031f0;stop-opacity:1"
         id="stop6536" />
      <stop
         offset="1"
         style="stop-color:#0fcafb;stop-opacity:1"
         id="stop6538" />
    </linearGradient>
    <linearGradient
       id="linearGradient3193">
      <stop
         id="stop3195"
         style="stop-color:#737373;stop-opacity:1"
         offset="0" />
      <stop
         id="stop3197"
         style="stop-color:#636363;stop-opacity:1"
         offset="0.69215727" />
      <stop
         id="stop3199"
         style="stop-color:#4b4b4b;stop-opacity:1"
         offset="0.90638965" />
      <stop
         id="stop3201"
         style="stop-color:#3f3f3f;stop-opacity:1"
         offset="1" />
    </linearGradient>
    <linearGradient
       id="linearGradient4017">
      <stop
         id="stop4019"
         style="stop-color:#737373;stop-opacity:1"
         offset="0" />
      <stop
         id="stop4021"
         style="stop-color:#636363;stop-opacity:1"
         offset="0.31551507" />
      <stop
         id="stop4023"
         style="stop-color:#4b4b4b;stop-opacity:1"
         offset="0.70774859" />
      <stop
         id="stop4025"
         style="stop-color:#3f3f3f;stop-opacity:1"
         offset="1" />
    </linearGradient>
    <linearGradient
       id="linearGradient4007">
      <stop
         id="stop4009"
         style="stop-color:#737373;stop-opacity:1"
         offset="0" />
      <stop
         id="stop4011"
         style="stop-color:#636363;stop-opacity:1"
         offset="0.24689062" />
      <stop
         id="stop4013"
         style="stop-color:#4b4b4b;stop-opacity:1"
         offset="0.704952" />
      <stop
         id="stop4015"
         style="stop-color:#3f3f3f;stop-opacity:1"
         offset="1" />
    </linearGradient>
    <linearGradient
       id="linearGradient3637">
      <stop
         offset="0"
         style="stop-color:#f0f0f0;stop-opacity:1"
         id="stop3639" />
      <stop
         offset="1"
         style="stop-color:#aaaaaa;stop-opacity:1"
         id="stop3641" />
    </linearGradient>
    <linearGradient
       gradientTransform="scale(1.0058652,0.994169)"
       gradientUnits="userSpaceOnUse"
       id="ButtonShadow"
       y2="7.0165396"
       x2="45.447727"
       y1="92.539597"
       x1="45.447727">
      <stop
         offset="0"
         style="stop-color:#000000;stop-opacity:1"
         id="stop3750" />
      <stop
         offset="1"
         style="stop-color:#000000;stop-opacity:0.58823532"
         id="stop3752" />
    </linearGradient>
    <linearGradient
       id="linearGradient3737">
      <stop
         offset="0"
         style="stop-color:#ffffff;stop-opacity:1"
         id="stop3739" />
      <stop
         offset="1"
         style="stop-color:#ffffff;stop-opacity:0"
         id="stop3741" />
    </linearGradient>
    <linearGradient
       id="linearGradient3700-3">
      <stop
         offset="0"
         style="stop-color:#2276c5;stop-opacity:1"
         id="stop3702" />
      <stop
         offset="1"
         style="stop-color:#68baf4;stop-opacity:1"
         id="stop3704" />
    </linearGradient>
    <filter
       id="filter3174"
       color-interpolation-filters="sRGB">
      <feGaussianBlur
         stdDeviation="1.71"
         id="feGaussianBlur3176" />
    </filter>
    <linearGradient
       gradientUnits="userSpaceOnUse"
       xlink:href="#linearGradient3737"
       id="linearGradient3188"
       y2="63.893143"
       x2="36.357143"
       y1="6"
       x1="36.357143" />
    <filter
       id="filter3794"
       color-interpolation-filters="sRGB"
       height="1.3839999"
       width="1.3839999"
       y="-0.192"
       x="-0.192">
      <feGaussianBlur
         stdDeviation="5.28"
         id="feGaussianBlur3796" />
    </filter>
    <linearGradient
       gradientUnits="userSpaceOnUse"
       xlink:href="#linearGradient3737"
       id="linearGradient3613"
       y2="138.66119"
       x2="48"
       y1="20.220806"
       x1="48" />
    <radialGradient
       gradientTransform="matrix(1.1573129,0,0,0.99590774,-7.5510206,0.19713193)"
       gradientUnits="userSpaceOnUse"
       xlink:href="#linearGradient3737"
       id="radialGradient3619"
       fy="90.171875"
       fx="48"
       r="42"
       cy="90.171875"
       cx="48" />
    <clipPath
       id="clipPath3613">
      <rect
         style="fill:#ffffff;fill-opacity:1;fill-rule:nonzero;stroke:none"
         id="rect3615"
         y="6"
         x="6"
         ry="6"
         rx="6"
         height="84"
         width="84" />
    </clipPath>
    <linearGradient
       gradientTransform="translate(0,100)"
       gradientUnits="userSpaceOnUse"
       xlink:href="#linearGradient3700-3"
       id="linearGradient2843"
       y2="5.9877172"
       x2="48"
       y1="90"
       x1="48" />
    <clipPath
       id="clipPath3625">
      <path
         style="fill:#ffffff;fill-opacity:1;stroke:none"
         id="path3627"
         inkscape:connector-curvature="0"
         d="M 0,0 0,96 96,96 96,0 0,0 z m 12,6 72,0 c 3.324,0 6,2.676 6,6 l 0,72 c 0,3.324 -2.676,6 -6,6 L 12,90 C 8.676,90 6,87.324 6,84 L 6,12 C 6,8.676 8.676,6 12,6 z" />
    </clipPath>
    <linearGradient
       gradientUnits="userSpaceOnUse"
       xlink:href="#linearGradient3637"
       id="linearGradient3643"
       y2="90.015434"
       x2="44.512066"
       y1="6"
       x1="44.512066" />
    <clipPath
       id="clipPath3649">
      <rect
         style="fill:#ffffff;fill-opacity:1;fill-rule:nonzero;stroke:none"
         id="rect3651"
         y="10"
         x="10"
         ry="4"
         rx="4"
         height="76"
         width="76" />
    </clipPath>
    <filter
       id="filter3657"
       color-interpolation-filters="sRGB">
      <feGaussianBlur
         stdDeviation="1.14"
         id="feGaussianBlur3659" />
    </filter>
    <linearGradient
       gradientTransform="matrix(1.0058652,0,0,0.994169,100,0)"
       gradientUnits="userSpaceOnUse"
       id="ButtonShadow-0"
       y2="7.0165396"
       x2="45.447727"
       y1="92.539597"
       x1="45.447727">
      <stop
         offset="0"
         style="stop-color:#000000;stop-opacity:1"
         id="stop3750-8" />
      <stop
         offset="1"
         style="stop-color:#000000;stop-opacity:0.58823532"
         id="stop3752-5" />
    </linearGradient>
    <linearGradient
       gradientTransform="matrix(1.0238095,0,0,-1.0119048,-1.1428571,98.071429)"
       gradientUnits="userSpaceOnUse"
       xlink:href="#ButtonShadow-0"
       id="linearGradient3780"
       y2="90.238609"
       x2="32.251034"
       y1="6.1317081"
       x1="32.251034" />
    <linearGradient
       gradientTransform="matrix(1,0,0,-1,0,97)"
       gradientUnits="userSpaceOnUse"
       xlink:href="#ButtonShadow-0"
       id="linearGradient3721"
       y2="90.238609"
       x2="32.251034"
       y1="6.1317081"
       x1="32.251034" />
    <radialGradient
       gradientTransform="matrix(1.1573129,0,0,0.99590774,-7.551021,0.1971319)"
       gradientUnits="userSpaceOnUse"
       xlink:href="#linearGradient3737"
       id="radialGradient3619-3"
       fy="90.171875"
       fx="48"
       r="42"
       cy="90.171875"
       cx="48" />
    <linearGradient
       gradientTransform="translate(-104,104)"
       gradientUnits="userSpaceOnUse"
       xlink:href="#linearGradient3637"
       id="linearGradient3905"
       y2="8"
       x2="120"
       y1="8"
       x1="104" />
    <linearGradient
       gradientTransform="translate(-144,104)"
       gradientUnits="userSpaceOnUse"
       xlink:href="#linearGradient3183-0"
       id="linearGradient3913"
       y2="8"
       x2="120"
       y1="8"
       x1="104" />
    <linearGradient
       id="linearGradient3183-0">
      <stop
         offset="0"
         style="stop-color:#c80000;stop-opacity:1"
         id="stop3185-9" />
      <stop
         offset="1"
         style="stop-color:#f3604d;stop-opacity:1"
         id="stop3187-6" />
    </linearGradient>
    <linearGradient
       gradientTransform="matrix(3.272827,0,0,3.2706392,148.59329,-8.5805204)"
       gradientUnits="userSpaceOnUse"
       xlink:href="#linearGradient3637"
       id="linearGradient3879"
       y2="19.285688"
       x2="10.558969"
       y1="3.0148761"
       x1="10.558969" />
    <linearGradient
       inkscape:collect="always"
       xlink:href="#linearGradient3637"
       id="linearGradient4159"
       gradientUnits="userSpaceOnUse"
       gradientTransform="matrix(0.99534935,0,0,0.99534934,0.97258014,0.31229238)"
       x1="44.724388"
       y1="-14.736261"
       x2="44.643169"
       y2="100.6024" />
    <linearGradient
       id="linearGradient5036">
      <stop
         offset="0"
         style="stop-color:#a2a2a2;stop-opacity:1"
         id="stop5038" />
      <stop
         offset="1"
         style="stop-color:#838383;stop-opacity:1"
         id="stop5040" />
    </linearGradient>
    <linearGradient
       inkscape:collect="always"
       xlink:href="#linearGradient5036"
       id="linearGradient3330"
       gradientUnits="userSpaceOnUse"
       gradientTransform="matrix(0.99534936,0,0,0.99534935,0.97257973,0.31229271)"
       x1="44.724388"
       y1="-14.736261"
       x2="44.643169"
       y2="100.6024" />
    <linearGradient
       y2="104.51118"
       x2="41.350048"
       y1="13.184075"
       x1="40.916973"
       gradientTransform="translate(0.83753428,1.1730861e-6)"
       gradientUnits="userSpaceOnUse"
       id="linearGradient4161"
       xlink:href="#linearGradient3742-8-9-0-7"
       inkscape:collect="always" />
    <linearGradient
       x1="50.5"
       y1="46.660999"
       gradientTransform="translate(-47.818,2.501)"
       x2="53.202999"
       gradientUnits="userSpaceOnUse"
       y2="4.5"
       id="linearGradient3742-8-9-0-7">
      <stop
         offset="0"
         style="stop-color:#363636"
         id="stop3970-6-1-4-8" />
      <stop
         offset=".58528"
         style="stop-color:#3b3b3b"
         id="stop3972-8-5-5-4" />
    </linearGradient>
    <linearGradient
       inkscape:collect="always"
       xlink:href="#linearGradient3742-8-9-0-7"
       id="linearGradient3354"
       gradientUnits="userSpaceOnUse"
       gradientTransform="translate(0.83753456,8.0442886e-7)"
       x1="40.916973"
       y1="13.184075"
       x2="41.350048"
       y2="104.51118" />
    <linearGradient
       inkscape:collect="always"
       xlink:href="#linearGradient3742-8-9-0-7"
       id="linearGradient3354-7"
       gradientUnits="userSpaceOnUse"
       gradientTransform="translate(0.83753382,1.8757306e-7)"
       x1="40.916973"
       y1="13.184075"
       x2="41.350048"
       y2="104.51118" />
    <linearGradient
       inkscape:collect="always"
       xlink:href="#linearGradient3637"
       id="linearGradient4159-8"
       gradientUnits="userSpaceOnUse"
       gradientTransform="matrix(0.99534935,0,0,0.99534934,0.97257936,0.31229101)"
       x1="44.724388"
       y1="-14.736261"
       x2="45.494587"
       y2="98.922539" />
    <linearGradient
       inkscape:collect="always"
       xlink:href="#linearGradient5036"
       id="linearGradient3429"
       gradientUnits="userSpaceOnUse"
       gradientTransform="matrix(0.99534935,0,0,0.99534934,0.97257936,0.31229201)"
       x1="44.724388"
       y1="-14.736261"
       x2="45.494587"
       y2="98.922539" />
    <linearGradient
       inkscape:collect="always"
       xlink:href="#linearGradient3742-8-9-0-7"
       id="linearGradient3441"
       gradientUnits="userSpaceOnUse"
       gradientTransform="translate(0.83753382,-8.1242693e-7)"
       x1="40.916973"
       y1="13.184075"
       x2="41.350048"
       y2="104.51118" />
    <linearGradient
       inkscape:collect="always"
       xlink:href="#linearGradient3637"
       id="linearGradient4159-6"
       gradientUnits="userSpaceOnUse"
       gradientTransform="matrix(0.99534935,0,0,0.99534934,0.97257992,0.31229201)"
       x1="44.724388"
       y1="-14.736261"
       x2="45.494587"
       y2="98.922539" />
    <linearGradient
       inkscape:collect="always"
       xlink:href="#linearGradient5036"
       id="linearGradient3330-3"
       gradientUnits="userSpaceOnUse"
       gradientTransform="matrix(0.99534936,0,0,0.99534935,0.97257973,0.31229271)"
       x1="44.724388"
       y1="-14.736261"
       x2="45.494587"
       y2="98.922539" />
    <linearGradient
       inkscape:collect="always"
       xlink:href="#linearGradient3742-8-9-0-7"
       id="linearGradient3354-3"
       gradientUnits="userSpaceOnUse"
       gradientTransform="translate(0.83753449,1.8757306e-7)"
       x1="40.916973"
       y1="13.184075"
       x2="41.350048"
       y2="104.51118" />
    <linearGradient
       inkscape:collect="always"
       xlink:href="#linearGradient3637"
       id="linearGradient4159-84"
       gradientUnits="userSpaceOnUse"
       gradientTransform="matrix(0.99534935,0,0,0.99534934,0.97257952,0.31229238)"
       x1="44.724388"
       y1="-14.736261"
       x2="45.494587"
       y2="98.922539" />
    <linearGradient
       inkscape:collect="always"
       xlink:href="#linearGradient3742-8-9-0-7"
       id="linearGradient3354-5"
       gradientUnits="userSpaceOnUse"
       gradientTransform="translate(0.83753473,8.0442886e-7)"
       x1="40.916973"
       y1="13.184075"
       x2="41.350048"
       y2="104.51118" />
    <linearGradient
       inkscape:collect="always"
       xlink:href="#linearGradient3742-8-9-0-7"
       id="linearGradient4163"
       gradientUnits="userSpaceOnUse"
       gradientTransform="matrix(0,-0.92825372,1.0329223,0,0.03958613,99.868985)"
       x1="112.15242"
       y1="42.640965"
       x2="12.075056"
       y2="43.26849" />
    <linearGradient
       inkscape:collect="always"
       xlink:href="#linearGradient3742-8-9-0-7"
       id="linearGradient3353"
       gradientUnits="userSpaceOnUse"
       gradientTransform="matrix(0,-0.95223931,0.89495446,0,10.520197,101.37738)"
       x1="146.14059"
       y1="41.975815"
       x2="-2.6307092"
       y2="43.062241" />
    <linearGradient
       y2="56.281681"
       x2="57.810478"
       y1="56.281693"
       x1="24.387962"
       gradientTransform="matrix(0.92830354,0,0,6.9454645,4.6640199,-411.89571)"
       gradientUnits="userSpaceOnUse"
       id="linearGradient3163"
       xlink:href="#linearGradient3742-8-9-0-7"
       inkscape:collect="always" />
    <radialGradient
       r="21.644272"
       fy="56.079258"
       fx="40.589245"
       cy="56.079258"
       cx="40.589245"
       gradientTransform="matrix(1.3195738,-0.13411123,0.01934917,11.131971,-13.498455,-622.72454)"
       gradientUnits="userSpaceOnUse"
       id="radialGradient3165"
       xlink:href="#linearGradient3637"
       inkscape:collect="always" />
    <linearGradient
       y2="56.281681"
       x2="57.810478"
       y1="56.281693"
       x1="24.387962"
       gradientTransform="matrix(0.9474178,0,0,6.915044,3.9290501,-409.85251)"
       gradientUnits="userSpaceOnUse"
       id="linearGradient3167"
       xlink:href="#linearGradient3742-8-9-0-7"
       inkscape:collect="always" />
    <radialGradient
       r="21.644272"
       fy="56.079258"
       fx="40.589245"
       cy="56.079258"
       cx="40.589245"
       gradientTransform="matrix(1.4735202,-0.14623837,0.02160653,12.13859,-20.635291,-684.08737)"
       gradientUnits="userSpaceOnUse"
       id="radialGradient3169"
       xlink:href="#linearGradient3637"
       inkscape:collect="always" />
    <linearGradient
       y2="56.281681"
       x2="57.810478"
       y1="56.281693"
       x1="24.387962"
       gradientTransform="matrix(1.0592951,0,0,1.2779073,-3.5522047,-31.378106)"
       gradientUnits="userSpaceOnUse"
       id="linearGradient3179"
       xlink:href="#linearGradient3742-8-9-0-7"
       inkscape:collect="always" />
    <radialGradient
       r="21.644272"
       fy="56.079258"
       fx="40.589245"
       cy="56.079258"
       cx="40.589245"
       gradientTransform="matrix(1.5057769,-0.02467535,0.0220795,2.0481892,-24.277567,-70.168835)"
       gradientUnits="userSpaceOnUse"
       id="radialGradient3181"
       xlink:href="#linearGradient3637"
       inkscape:collect="always" />
    <radialGradient
       r="21.644272"
       fy="56.079258"
       fx="40.589245"
       cy="56.079258"
       cx="40.589245"
       gradientTransform="matrix(1.5057769,-0.02467535,0.0220795,2.0481892,-24.277567,-70.168835)"
       gradientUnits="userSpaceOnUse"
       id="radialGradient3185"
       xlink:href="#linearGradient3637"
       inkscape:collect="always" />
    <linearGradient
       y2="56.281681"
       x2="57.810478"
       y1="56.281693"
       x1="24.387962"
       gradientTransform="matrix(0,2.5409888,-1.0737961,0,101.21385,-73.796027)"
       gradientUnits="userSpaceOnUse"
       id="linearGradient3195"
       xlink:href="#linearGradient3742-8-9-0-7"
       inkscape:collect="always" />
    <radialGradient
       r="21.644272"
       fy="56.079258"
       fx="40.589245"
       cy="56.079258"
       cx="40.589245"
       gradientTransform="matrix(0.02073412,3.6119891,-1.7210461,0.05296331,133.80881,-123.51107)"
       gradientUnits="userSpaceOnUse"
       id="radialGradient3197"
       xlink:href="#linearGradient3637"
       inkscape:collect="always" />
    <radialGradient
       r="21.644272"
       fy="56.079258"
       fx="40.589245"
       cy="56.079258"
       cx="40.589245"
       gradientTransform="matrix(0.02073412,3.6119891,-1.7210461,0.05296331,133.80881,-123.51107)"
       gradientUnits="userSpaceOnUse"
       id="radialGradient3202"
       xlink:href="#linearGradient3637"
       inkscape:collect="always" />
    <linearGradient
       y2="56.281681"
       x2="57.810478"
       y1="56.281693"
       x1="24.387962"
       gradientTransform="matrix(0,2.5409888,-1.0737961,0,121.39576,-73.238392)"
       gradientUnits="userSpaceOnUse"
       id="linearGradient3212"
       xlink:href="#linearGradient3742-8-9-0-7"
       inkscape:collect="always" />
    <radialGradient
       r="21.644272"
       fy="56.079258"
       fx="40.589245"
       cy="56.079258"
       cx="40.589245"
       gradientTransform="matrix(0.02073412,3.6119891,-1.7210461,0.05296331,153.9907,-122.95343)"
       gradientUnits="userSpaceOnUse"
       id="radialGradient3214"
       xlink:href="#linearGradient3637"
       inkscape:collect="always" />
    <radialGradient
       r="21.644272"
       fy="56.079258"
       fx="40.589245"
       cy="56.079258"
       cx="40.589245"
       gradientTransform="matrix(0.02073412,3.6119891,-1.7210461,0.05296331,153.9907,-122.95343)"
       gradientUnits="userSpaceOnUse"
       id="radialGradient3218"
       xlink:href="#linearGradient3637"
       inkscape:collect="always" />
    <linearGradient
       y2="56.281681"
       x2="57.810478"
       y1="56.281693"
       x1="24.387962"
       gradientTransform="matrix(0,2.5409888,-1.0737961,0,141.16994,-73.981904)"
       gradientUnits="userSpaceOnUse"
       id="linearGradient3228"
       xlink:href="#linearGradient3742-8-9-0-7"
       inkscape:collect="always" />
    <radialGradient
       r="21.644272"
       fy="56.079258"
       fx="40.589245"
       cy="56.079258"
       cx="40.589245"
       gradientTransform="matrix(0.02073412,3.6119891,-1.7210461,0.05296331,173.7649,-123.69694)"
       gradientUnits="userSpaceOnUse"
       id="radialGradient3230"
       xlink:href="#linearGradient3637"
       inkscape:collect="always" />
    <radialGradient
       r="21.644272"
       fy="56.079258"
       fx="40.589245"
       cy="56.079258"
       cx="40.589245"
       gradientTransform="matrix(0.02073412,3.6119891,-1.7210461,0.05296331,173.7649,-123.69694)"
       gradientUnits="userSpaceOnUse"
       id="radialGradient3234"
       xlink:href="#linearGradient3637"
       inkscape:collect="always" />
    <linearGradient
       y2="56.281681"
       x2="57.810478"
       y1="56.281693"
       x1="24.387962"
       gradientTransform="matrix(0.9250267,0,0,2.5430136,18.464837,-139.51416)"
       gradientUnits="userSpaceOnUse"
       id="linearGradient3178"
       xlink:href="#linearGradient3742-8-9-0-7"
       inkscape:collect="always" />
    <radialGradient
       r="21.644272"
       fy="56.079258"
       fx="40.589245"
       cy="56.079258"
       cx="40.589245"
       gradientTransform="matrix(1.3149157,-0.04910353,0.01928086,4.0758617,0.36646885,-216.70706)"
       gradientUnits="userSpaceOnUse"
       id="radialGradient3182"
       xlink:href="#linearGradient3637"
       inkscape:collect="always" />
    <radialGradient
       r="21.644272"
       fy="56.079258"
       fx="40.589245"
       cy="56.079258"
       cx="40.589245"
       gradientTransform="matrix(1.3700716,-0.04910353,0.02008962,4.0758617,-2.2622695,-216.70706)"
       gradientUnits="userSpaceOnUse"
       id="radialGradient3184"
       xlink:href="#linearGradient3637"
       inkscape:collect="always" />
    <linearGradient
       y2="56.281681"
       x2="57.810478"
       y1="56.281693"
       x1="24.387962"
       gradientTransform="matrix(1.0592951,0,0,1.2779073,23.295253,-36.056071)"
       gradientUnits="userSpaceOnUse"
       id="linearGradient3218"
       xlink:href="#linearGradient3742-8-9-0-7"
       inkscape:collect="always" />
    <linearGradient
       y2="56.281681"
       x2="57.810478"
       y1="56.281693"
       x1="24.387962"
       gradientTransform="matrix(1.0686981,0,0,1.2763089,22.684828,-22.425406)"
       gradientUnits="userSpaceOnUse"
       id="linearGradient3220"
       xlink:href="#linearGradient3742-8-9-0-7"
       inkscape:collect="always" />
    <linearGradient
       y2="56.281681"
       x2="57.810478"
       y1="56.281693"
       x1="24.387962"
       gradientTransform="matrix(1.0907032,0,0,1.2707188,21.838703,-22.049942)"
       gradientUnits="userSpaceOnUse"
       id="linearGradient3222"
       xlink:href="#linearGradient3742-8-9-0-7"
       inkscape:collect="always" />
    <radialGradient
       r="21.644272"
       fy="56.079258"
       fx="40.589245"
       cy="56.079258"
       cx="40.589245"
       gradientTransform="matrix(1.5191431,-0.02464448,0.0222755,2.0456274,1.7755014,-61.167617)"
       gradientUnits="userSpaceOnUse"
       id="radialGradient3226"
       xlink:href="#linearGradient3637"
       inkscape:collect="always" />
    <radialGradient
       r="21.644272"
       fy="56.079258"
       fx="40.589245"
       cy="56.079258"
       cx="40.589245"
       gradientTransform="matrix(1.5191431,-0.02464448,0.0222755,2.0456274,1.7755014,-61.167617)"
       gradientUnits="userSpaceOnUse"
       id="radialGradient3228"
       xlink:href="#linearGradient3637"
       inkscape:collect="always" />
    <radialGradient
       r="21.644272"
       fy="56.079258"
       fx="40.589245"
       cy="56.079258"
       cx="40.589245"
       gradientTransform="matrix(1.5057769,-0.02467535,0.0220795,2.0481892,2.5698904,-74.8468)"
       gradientUnits="userSpaceOnUse"
       id="radialGradient3231"
       xlink:href="#linearGradient3637"
       inkscape:collect="always" />
    <radialGradient
       r="21.644272"
       fy="56.079258"
       fx="40.589245"
       cy="56.079258"
       cx="40.589245"
       gradientTransform="matrix(1.5057769,-0.02467535,0.0220795,2.0481892,2.5698904,-74.8468)"
       gradientUnits="userSpaceOnUse"
       id="radialGradient3233"
       xlink:href="#linearGradient3637"
       inkscape:collect="always" />
    <radialGradient
       r="21.644272"
       fy="56.079258"
       fx="40.589245"
       cy="56.079258"
       cx="40.589245"
       gradientTransform="matrix(1.4269777,-0.09756027,0.02092407,8.0980402,-32.459376,-457.16692)"
       gradientUnits="userSpaceOnUse"
       id="radialGradient3205"
       xlink:href="#linearGradient3637"
       inkscape:collect="always" />
    <linearGradient
       y2="56.281681"
       x2="57.810478"
       y1="56.281693"
       x1="24.387962"
       gradientTransform="matrix(0.8178076,0,0,7.0480536,23.433929,-418.63535)"
       gradientUnits="userSpaceOnUse"
       id="linearGradient3215"
       xlink:href="#linearGradient3742-8-9-0-7"
       inkscape:collect="always" />
    <linearGradient
       y2="56.281681"
       x2="57.810478"
       y1="56.281693"
       x1="24.387962"
       gradientTransform="matrix(0.83464668,0,0,7.0171838,22.786443,-416.56196)"
       gradientUnits="userSpaceOnUse"
       id="linearGradient3217"
       xlink:href="#linearGradient3742-8-9-0-7"
       inkscape:collect="always" />
    <radialGradient
       r="21.644272"
       fy="56.079258"
       fx="40.589245"
       cy="56.079258"
       cx="40.589245"
       gradientTransform="matrix(1.1625049,-0.13609214,0.01704604,11.296397,7.4333353,-632.57826)"
       gradientUnits="userSpaceOnUse"
       id="radialGradient3219"
       xlink:href="#linearGradient3637"
       inkscape:collect="always" />
    <radialGradient
       r="21.644272"
       fy="56.079258"
       fx="40.589245"
       cy="56.079258"
       cx="40.589245"
       gradientTransform="matrix(1.3670721,-0.1483984,0.02004566,12.317885,-2.229616,-694.84747)"
       gradientUnits="userSpaceOnUse"
       id="radialGradient3221"
       xlink:href="#linearGradient3637"
       inkscape:collect="always" />
    <radialGradient
       inkscape:collect="always"
       xlink:href="#linearGradient2867-449-88-871-390-598-476-591-434-148-57-177-641-289-620-227-114-444-680-744-4-1-5-4-1"
       id="radialGradient3062"
       gradientUnits="userSpaceOnUse"
       gradientTransform="matrix(-6.8879704,0,0,-6.3919691,179.90489,-187.92204)"
       cx="22.818085"
       cy="-25.988077"
       fx="22.818085"
       fy="-25.988077"
       r="19.99999" />
    <linearGradient
       id="linearGradient2867-449-88-871-390-598-476-591-434-148-57-177-641-289-620-227-114-444-680-744-4-1-5-4-1">
      <stop
         offset="0"
         style="stop-color:#737373;stop-opacity:1"
         id="stop5430-5-0-9-6-4" />
      <stop
         offset="0.26238"
         style="stop-color:#636363;stop-opacity:1"
         id="stop5432-2-0-0-4-0" />
      <stop
         offset="0.704952"
         style="stop-color:#4b4b4b;stop-opacity:1"
         id="stop5434-9-6-8-1-9" />
      <stop
         offset="1"
         style="stop-color:#3f3f3f;stop-opacity:1"
         id="stop5436-2-7-0-4-5" />
    </linearGradient>
    <radialGradient
       inkscape:collect="always"
       xlink:href="#linearGradient2867-449-88-871-390-598-476-591-434-148-57-177-641-289-620-227-114-444-680-744-4-1-5-4-1"
       id="radialGradient3484"
       gradientUnits="userSpaceOnUse"
       gradientTransform="matrix(-1.1491653,0,0,-1.0369358,21.580523,4.6843655)"
       cx="22.818085"
       cy="-25.988077"
       fx="22.818085"
       fy="-25.988077"
       r="19.99999" />
    <linearGradient
       gradientTransform="matrix(1.2113811,0,0,1.2178372,-90.588881,23.223383)"
       gradientUnits="userSpaceOnUse"
       y2="-10.971493"
       x2="43.020573"
       y1="-10.931044"
       x1="35.750984"
       id="linearGradient3981"
       xlink:href="#linearGradient2867-449-88-871-390-598-476-591-434-148-57-177-641-289-620-227-114-444-680-744-4-1-5-4-1"
       inkscape:collect="always" />
    <linearGradient
       gradientTransform="matrix(1.2113811,0,0,1.2178372,-90.588881,23.223383)"
       gradientUnits="userSpaceOnUse"
       y2="-10.971493"
       x2="43.020573"
       y1="-10.931044"
       x1="35.750984"
       id="linearGradient3989"
       xlink:href="#linearGradient4007"
       inkscape:collect="always" />
    <linearGradient
       gradientTransform="matrix(1.990536,0.05872935,-0.05873365,2.1626967,-8.4890757,-49.951122)"
       gradientUnits="userSpaceOnUse"
       y2="43.301384"
       x2="10.662939"
       y1="39.757908"
       x1="10.468092"
       id="linearGradient3997"
       xlink:href="#linearGradient2867-449-88-871-390-598-476-591-434-148-57-177-641-289-620-227-114-444-680-744-4-1-5-4-1"
       inkscape:collect="always" />
    <linearGradient
       gradientTransform="matrix(-1.2604844,-0.00382787,-0.01827663,-0.23720888,24.124066,45.632095)"
       gradientUnits="userSpaceOnUse"
       y2="45.959785"
       x2="10.455746"
       y1="35.495281"
       x1="10.474105"
       id="linearGradient4005"
       xlink:href="#linearGradient4017"
       inkscape:collect="always" />
    <linearGradient
       y2="103.075"
       x2="5.9045238"
       y1="-124.46296"
       x1="-208.85832"
       gradientUnits="userSpaceOnUse"
       id="linearGradient5207"
       xlink:href="#linearGradient3810-6"
       inkscape:collect="always" />
    <linearGradient
       id="linearGradient3810-6"
       inkscape:collect="always">
      <stop
         id="stop3812-9"
         offset="0"
         style="stop-color:#e6e6e6;stop-opacity:1;" />
      <stop
         id="stop3814-3"
         offset="1"
         style="stop-color:#e6e6e6;stop-opacity:0;" />
    </linearGradient>
    <linearGradient
       y2="36.767574"
       x2="15.798894"
       y1="27.923777"
       x1="0.51212925"
       gradientTransform="matrix(1.990536,0.05872935,-0.05873365,2.1626967,-8.4773728,-49.892986)"
       gradientUnits="userSpaceOnUse"
       id="linearGradient4528"
       xlink:href="#linearGradient3810-6"
       inkscape:collect="always" />
    <linearGradient
       gradientUnits="userSpaceOnUse"
       y2="71.955704"
       x2="-23.88599"
       y1="16.269987"
       x1="-59.288525"
       id="linearGradient5201"
       xlink:href="#linearGradient2867-449-88-871-390-598-476-591-434-148-57-177-641-289-620-227-114-444-680-744-4-1-5-4-1"
       inkscape:collect="always" />
    <linearGradient
       y2="56.281681"
       x2="57.810478"
       y1="56.281693"
       x1="24.387962"
       gradientTransform="matrix(1.0123922,0,0,1.624006,-21.62257,-78.853334)"
       gradientUnits="userSpaceOnUse"
       id="linearGradient3153"
       xlink:href="#linearGradient3742-8-9-0-7"
       inkscape:collect="always" />
    <linearGradient
       inkscape:collect="always"
       xlink:href="#linearGradient3742-8-9-0-7"
       id="linearGradient3184"
       gradientUnits="userSpaceOnUse"
       gradientTransform="matrix(1.0123922,0,0,1.624006,-60.373431,-72.875124)"
       x1="24.387962"
       y1="56.281693"
       x2="57.810478"
       y2="56.281681" />
    <linearGradient
       inkscape:collect="always"
       xlink:href="#linearGradient3700"
       id="linearGradient6424"
       x1="343.27618"
       y1="447.6705"
       x2="523.89954"
       y2="363.32632"
       gradientUnits="userSpaceOnUse"
       gradientTransform="matrix(0.50786232,0,0,0.50786232,-303.41561,-164.32037)" />
  </defs>
  <sodipodi:namedview
     id="base"
     pagecolor="#ffffff"
     bordercolor="#666666"
     borderopacity="1.0"
     inkscape:pageopacity="0.0"
     inkscape:pageshadow="2"
     inkscape:zoom="0.78129443"
     inkscape:cx="168.31043"
     inkscape:cy="332.78107"
     inkscape:document-units="mm"
     inkscape:current-layer="layer2"
     showgrid="false"
     units="px"
     inkscape:window-width="1920"
     inkscape:window-height="1019"
     inkscape:window-x="0"
     inkscape:window-y="29"
     inkscape:window-maximized="1"
     inkscape:pagecheckerboard="0" />
  <metadata
     id="metadata5">
    <rdf:RDF>
      <cc:Work
         rdf:about="">
        <dc:format>image/svg+xml</dc:format>
        <dc:type
           rdf:resource="http://purl.org/dc/dcmitype/StillImage" />
      </cc:Work>
    </rdf:RDF>
  </metadata>
  <g
     inkscape:groupmode="layer"
     id="layer2"
     inkscape:label="Logo">
    <rect
       style="fill:#000000;fill-opacity:1;stroke:#000000;stroke-width:11.3712;stroke-linejoin:round;stroke-miterlimit:4;stroke-dasharray:none;stroke-opacity:1"
       id="rect3942"
       width="110.33717"
       height="110.33716"
       x="12.063844"
       y="13.657271"
       ry="10.416156"
       inkscape:export-xdpi="96"
       inkscape:export-ydpi="96" />
    <path
       id="path6091"
       style="fill:none;stroke:url(#linearGradient6424);stroke-width:10.5833"
       transform="matrix(-0.95410428,-0.29947457,-0.29947457,0.95410428,0,0)"
       d="m -47.610268,45.535069 a 37.15403,37.15403 0 0 1 -28.541077,36.141928 37.15403,37.15403 0 0 1 -41.773715,-19.385268 37.15403,37.15403 0 0 1 9.17332,-45.129616 37.15403,37.15403 0 0 1 46.026791,-1.538398 l -22.039348,29.911354 z" />
  </g>
</svg>
