<?xml version="1.0" encoding="UTF-8" standalone="no"?>
<svg
   width="96"
   height="96"
   version="1.1"
   id="svg65"
   sodipodi:docname="firefox.svg"
   inkscape:version="1.1.2 (0a00cf5339, 2022-02-04)"
   xmlns:inkscape="http://www.inkscape.org/namespaces/inkscape"
   xmlns:sodipodi="http://sodipodi.sourceforge.net/DTD/sodipodi-0.dtd"
   xmlns="http://www.w3.org/2000/svg"
   xmlns:svg="http://www.w3.org/2000/svg">
  <sodipodi:namedview
     id="namedview67"
     pagecolor="#ffffff"
     bordercolor="#666666"
     borderopacity="1.0"
     inkscape:pageshadow="2"
     inkscape:pageopacity="0.0"
     inkscape:pagecheckerboard="0"
     showgrid="false"
     inkscape:zoom="4.5906698"
     inkscape:cx="38.447549"
     inkscape:cy="32.348221"
     inkscape:window-width="1920"
     inkscape:window-height="983"
     inkscape:window-x="0"
     inkscape:window-y="33"
     inkscape:window-maximized="1"
     inkscape:current-layer="svg65" />
  <defs
     id="defs61">
    <style
       id="current-color-scheme"
       type="text/css">
   .ColorScheme-Text { color:#ebdbb2; } .ColorScheme-Highlight { color:#458588; }
  </style>
    <linearGradient
       id="arrongin"
       x1="0"
       x2="0"
       y1="0"
       y2="1">
      <stop
         offset="0%"
         style="stop-color:#d79921; stop-opacity:1"
         id="stop3" />
      <stop
         offset="100%"
         style="stop-color:#b57614; stop-opacity:1"
         id="stop5" />
    </linearGradient>
    <linearGradient
       id="aurora"
       x1="0"
       x2="0"
       y1="0"
       y2="1">
      <stop
         offset="0%"
         style="stop-color:#83a598; stop-opacity:1"
         id="stop8" />
      <stop
         offset="100%"
         style="stop-color:#b16286; stop-opacity:1"
         id="stop10" />
    </linearGradient>
    <linearGradient
       id="fitdance"
       x1="0"
       x2="0"
       y1="0"
       y2="1">
      <stop
         offset="0%"
         style="stop-color:#8ec07c; stop-opacity:1"
         id="stop13" />
      <stop
         offset="100%"
         style="stop-color:#458588; stop-opacity:1"
         id="stop15" />
    </linearGradient>
    <linearGradient
       id="oomox"
       x1="0"
       x2="0"
       y1="0"
       y2="1">
      <stop
         offset="0%"
         style="stop-color:#458588; stop-opacity:1"
         id="stop18" />
      <stop
         offset="100%"
         style="stop-color:#928374; stop-opacity:1"
         id="stop20" />
    </linearGradient>
    <linearGradient
       id="rainblue"
       x1="0"
       x2="0"
       y1="0"
       y2="1">
      <stop
         offset="0%"
         style="stop-color:#b8bb26; stop-opacity:1"
         id="stop23" />
      <stop
         offset="100%"
         style="stop-color:#076678; stop-opacity:1"
         id="stop25" />
    </linearGradient>
    <linearGradient
       id="sunrise"
       x1="0"
       x2="0"
       y1="0"
       y2="1">
      <stop
         offset="0%"
         style="stop-color: #fe8019; stop-opacity:1"
         id="stop28" />
      <stop
         offset="100%"
         style="stop-color: #fabd2f; stop-opacity:1"
         id="stop30" />
    </linearGradient>
    <linearGradient
       id="telinkrin"
       x1="0"
       x2="0"
       y1="0"
       y2="1">
      <stop
         offset="0%"
         style="stop-color: #83a598; stop-opacity:1"
         id="stop33" />
      <stop
         offset="100%"
         style="stop-color: #83a598; stop-opacity:1"
         id="stop35" />
    </linearGradient>
    <linearGradient
       id="60spsycho"
       x1="0"
       x2="0"
       y1="0"
       y2="1">
      <stop
         offset="0%"
         style="stop-color: #fb4934; stop-opacity:1"
         id="stop38" />
      <stop
         offset="25%"
         style="stop-color: #fabd2f; stop-opacity:1"
         id="stop40" />
      <stop
         offset="50%"
         style="stop-color: #fe8019; stop-opacity:1"
         id="stop42" />
      <stop
         offset="100%"
         style="stop-color: #689d6a; stop-opacity:1"
         id="stop44" />
    </linearGradient>
    <linearGradient
       id="90ssummer"
       x1="0"
       x2="0"
       y1="0"
       y2="1">
      <stop
         offset="0%"
         style="stop-color: #b16286; stop-opacity:1"
         id="stop47" />
      <stop
         offset="20%"
         style="stop-color: #8ec07c; stop-opacity:1"
         id="stop49" />
      <stop
         offset="50%"
         style="stop-color: #fabd2f; stop-opacity:1"
         id="stop51" />
      <stop
         offset="100%"
         style="stop-color: #458588; stop-opacity:1"
         id="stop53" />
    </linearGradient>
    <linearGradient
       id="cyberneon"
       x1="0"
       x2="0"
       y1="0"
       y2="1">
      <stop
         offset="0"
         style="stop-color:#83a598; stop-opacity:1"
         id="stop56" />
      <stop
         offset="1"
         style="stop-color:#b16286; stop-opacity:1"
         id="stop58" />
    </linearGradient>
  </defs>
  <path
     d="M 44.480697,95.623257 C 24.88167,93.777543 7.6392255,79.759552 2.4956849,61.489708 1.8849104,59.32025 0.9446726,53.124214 0.78998448,50.24935 0.76549785,49.794058 0.62075942,49.862699 0.32527815,50.469743 -0.43743661,52.036686 0.25562443,45.415091 1.2236959,41.886264 1.7206781,40.07462 2.0526786,38.519801 1.9614729,38.431107 1.8702443,38.342412 1.4662547,38.832867 1.0636782,39.521011 0.37568841,40.697002 0.34902541,40.705961 0.61988291,39.670165 1.3550472,36.858808 4.0925033,31.044884 5.9833689,28.27899 c 1.3444769,-1.966648 2.0873639,-3.534364 2.0873639,-4.404944 0,-3.79424 2.3051852,-9.840774 4.8920492,-12.831897 l 1.313633,-1.5189327 0.311136,2.1801237 c 0.204084,1.430054 0.891034,3.01424 1.99665,4.604519 l 1.685522,2.42439 4.98617,0.265451 c 2.742394,0.146005 5.322935,0.407628 5.734534,0.581401 0.502284,0.212064 1.443491,-0.200016 2.862335,-1.253209 2.668759,-1.980978 6.424541,-3.089717 9.129851,-2.695201 l 2.000676,0.29175 -2.188956,1.68259 c -2.273562,1.747625 -5.073012,5.500915 -5.073012,6.801494 0,1.115708 1.336926,2.888881 2.673714,3.546152 0.648582,0.3189 2.452062,0.715103 4.007736,0.880464 1.555674,0.165354 3.458213,0.514117 4.227864,0.775022 1.210194,0.410256 1.361238,0.630828 1.11732,1.631611 -0.528601,2.168775 -1.897651,3.359815 -6.396966,5.565208 l -4.496454,2.203992 -0.08646,2.817049 c -0.105841,3.44717 -0.55914,4.011492 -2.208759,2.74965 -1.568404,-1.199709 -2.529258,-1.185754 -3.682562,0.0535 -2.679506,2.879149 -1.026314,6.572731 4.567874,10.205612 2.080712,1.35121 5.188215,1.525628 8.703825,0.488513 1.223837,-0.361032 3.30618,-0.658568 4.627427,-0.6612 3.749988,-0.0072 7.34343,2.161752 7.34343,4.432898 0,1.321231 -0.759102,1.803758 -2.243718,1.426213 -0.635772,-0.16164 -2.474243,0.4881 -5.322156,1.881049 -3.994698,1.953828 -4.670832,2.142907 -8.259444,2.309761 -2.149715,0.09996 -4.709455,-0.0336 -5.688314,-0.29616 -0.978856,-0.2628 -1.854344,-0.405301 -1.945532,-0.31662 -0.488801,0.47532 4.955878,4.953091 7.339438,6.036025 12.012809,5.457794 26.717216,-0.854118 30.620749,-13.144057 1.103653,-3.474766 1.212703,-9.160279 0.235741,-12.291963 -0.371281,-1.190113 -0.677232,-2.319589 -0.679933,-2.509955 -0.01679,-1.172819 5.43072,3.490802 7.561692,6.473771 1.89405,2.651318 1.618938,1.480391 -0.42882,-1.825183 C 75.621017,44.113099 73.369342,41.896004 67.250476,36.933851 58.109978,29.521262 55.035423,21.970911 57.421329,12.795904 58.695524,7.8960009 62.874809,-0.0068387 64.188232,4.4411912e-6 64.362533,8.7797119e-4 64.896022,0.92580103 65.373779,2.0553038 c 0.612498,1.4480368 2.216184,3.332376 5.438232,6.3899222 2.513267,2.384951 4.693607,4.336278 4.845197,4.336278 0.15162,0 0.57486,-1.041379 0.94065,-2.314188 l 0.665028,-2.3141875 0.714774,2.2447665 c 1.034226,3.247974 2.217168,5.316249 4.892934,8.554793 3.610134,4.369426 6.704784,8.985487 8.207526,12.242529 1.573002,3.409344 3.117384,8.554982 3.117384,10.386688 0,0.901484 0.18216,1.20024 0.629957,1.033139 1.432693,-0.534624 1.586131,5.899505 0.28674,12.023737 -0.592979,2.794812 -1.586159,5.555443 -3.013061,8.375168 -1.609182,3.179923 -2.153682,4.779481 -2.231676,6.55595 -0.1464,3.334747 -2.70555,8.221059 -5.657316,10.801845 -1.24578,1.089198 -3.843282,2.883326 -5.772216,3.986959 -1.928952,1.103647 -4.733034,3.166466 -6.231299,4.58405 -4.222063,3.9947 -9.017262,5.829878 -17.504576,6.699182 -4.693596,0.48078 -4.922682,0.480361 -10.221366,-0.0192 z"
     style="fill:#81a1c1;stroke-width:6;fill-opacity:1"
     class="ColorScheme-Text"
     id="path63" />
</svg>
