<?xml version="1.0" encoding="UTF-8" standalone="no"?>
<!-- Uploaded to: SVG Repo, www.svgrepo.com, Generator: SVG Repo Mixer Tools -->

<svg
   width="96"
   height="96"
   viewBox="0 0 2.88 2.88"
   fill="none"
   version="1.1"
   id="svg4"
   sodipodi:docname="terminal.svg"
   inkscape:version="1.1.2 (0a00cf5339, 2022-02-04)"
   xmlns:inkscape="http://www.inkscape.org/namespaces/inkscape"
   xmlns:sodipodi="http://sodipodi.sourceforge.net/DTD/sodipodi-0.dtd"
   xmlns="http://www.w3.org/2000/svg"
   xmlns:svg="http://www.w3.org/2000/svg">
  <defs
     id="defs8" />
  <sodipodi:namedview
     id="namedview6"
     pagecolor="#ffffff"
     bordercolor="#666666"
     borderopacity="1.0"
     inkscape:pageshadow="2"
     inkscape:pageopacity="0.0"
     inkscape:pagecheckerboard="0"
     showgrid="false"
     inkscape:zoom="5.9529345"
     inkscape:cx="19.066227"
     inkscape:cy="33.00893"
     inkscape:window-width="1920"
     inkscape:window-height="983"
     inkscape:window-x="0"
     inkscape:window-y="33"
     inkscape:window-maximized="1"
     inkscape:current-layer="svg4" />
  <path
     d="m 2.6241029,2.0947024 c 0.1253012,0 0.2268854,0.1015838 0.2268854,0.2268853 0,0.1179307 -0.089984,0.2148524 -0.2050355,0.2258468 l -0.02185,0.00104 h -1.210056 c -0.1253009,0 -0.2268857,-0.1015837 -0.2268857,-0.2268854 0,-0.1179305 0.089981,-0.2148522 0.2050362,-0.2258467 l 0.021852,-0.00104 z M 0.09546519,0.39797796 c 0.0830619,-0.0830651 0.21451924,-0.0882572 0.30363246,-0.015575 l 0.0172281,0.015575 0.85564305,0.85564534 c 0.083073,0.083054 0.088254,0.2145119 0.015576,0.3036292 L 1.2719688,1.5744849 0.41632579,2.430115 c -0.088608,0.088606 -0.23225907,0.088606 -0.32086382,0 C 0.01240005,2.3470466 0.00720801,2.2156011 0.07988585,2.1264855 l 0.0155761,-0.017232 0.69520673,-0.695207 -0.69520673,-0.695204 c -0.08859724,-0.0886037 -0.08859724,-0.2322595 0,-0.32086414 z"
     id="形状-3"
     fill="#09244b"
     style="fill:#81a1c1;fill-opacity:1;fill-rule:nonzero;stroke:none;stroke-width:0.151257;stroke-opacity:1" />
</svg>
