[
	{
		"group" : "root",
		"stations" : 
		[
			{
				"name" : "Antenne Bayern - Chillout",
				"url" : "http://mp3channels.webradio.antenne.de/chillout"
			},
			{
				"name" : "1.FM - Chillout Lounge Radio",
				"url" : "http://strm112.1.fm/chilloutlounge_mobile_mp3"
			},
			{
				"name" : "80s80s Love",
				"url" : "http://streams.80s80s.de/love/mp3-192/streams.80s80s.de/"
			},
			{
				"name" : "80s80s Christmas",
				"url" : "http://streams.80s80s.de/christmas/mp3-192/streams.80s80s.de/"
			},
			{
				"name" : "80's 90's old music radio",
				"url" : "https://maggie.torontocast.com:2020/stream/100greatestofthe80s"
			},
			{
				"name" : "181 Smooth AC",
				"url" : "http://listen.181fm.com/181-smoothac_128k.mp3"
			},
			{
				"name" : "181.FM - Awesome 80's",
				"url" : "http://listen.181fm.com/181-awesome80s_128k.mp3"
			},
			{
				"name" : ".977 80s",
				"url" : "http://19763.live.streamtheworld.com/977_80_SC"
			},
			{
				"name" : "Chillout Radio",
				"url" : "http://panel.nadaje.com:9004"
			},
			{
				"name" : "Vibration Lounge",
				"url" : "http://vibrationlounge.ice.infomaniak.ch/vibrationlounge.mp3"
			},
			{
				"name" : "Radio Swiss Jazz",
				"url" : "http://stream.srg-ssr.ch/m/rsj/mp3_128"
			},
			{
				"name" : "Big R Radio - 80s FM",
				"url" : "http://bigrradio-edge1.cdnstream.com/5184_128"
			},
			{
				"name" : "RMC 80",
				"url" : "http://edge.radiomontecarlo.net/rmcweb008"
			},
			{
				"name" : "The Big 80s Station",
				"url" : "http://158.69.114.190:8065/;"
			},
			{
				"name" : "Sunshine Live - Lounge",
				"url" : "http://sunshinelive.hoerradar.de/sunshinelive-lounge-mp3-hq?sABC=5r795r63%230%23o000r827s931po57p4q48q3377r73615%23fgernz.fhafuvar-yvir.qr&amp;amsparams=playerid:stream.sunshine-live.de;skey:1585012323"
			},
			{
				"name" : "Royal Lounge",
				"url" : "http://193.33.170.218:8000/RoyalLounge"
			},
			{
				"name" : "Rouge FM Lounge",
				"url" : "http://rougefm.ice.infomaniak.ch/rougefm-high.mp3"
			},
			{
				"name" : "RauteMusik Lounge",
				"url" : "http://rautemusik-de-hz-fal-stream16.radiohost.de/lounge"
			},
			{
				"name" : "Lounge-Radio.com",
				"url" : "http://nl1.lounge-radio.com/"
			},
			{
				"name" : "Hip Hop Lounge",
				"url" : "http://streaming.radionomy.com/JamendoLounge"
			},
			{
				"name" : "Dooglounge radio",
				"url" : "http://dogglounge.com:8000/"
			},
			{
				"name" : "Deep House Lounge",
				"url" : "http://198.15.94.34:8006/stream"
			},
			{
				"name" : "Ibiza-Radios.com - Relax",
				"url" : "http://radio2.vip-radios.fm:8036/stream-64kmp3-IbizaRelax_autodj"
			},
			{
				"name" : "The Christmas Station",
				"url" : "https://stream.radio.co/s63541ce9b/listen"
			}
		]
	}
]